<?xml version="1.0" encoding="utf-8"?>
<!-- Generator: Adobe Illustrator 16.0.0, SVG Export Plug-In . SVG Version: 6.00 Build 0)  -->
<!DOCTYPE svg PUBLIC "-//W3C//DTD SVG 1.1//EN" "http://www.w3.org/Graphics/SVG/1.1/DTD/svg11.dtd">
<svg version="1.1" id="Layer_1" xmlns="http://www.w3.org/2000/svg" xmlns:xlink="http://www.w3.org/1999/xlink" x="0px" y="0px"
	 width="282px" height="282px" viewBox="0 0 282 282" enable-background="new 0 0 282 282" xml:space="preserve">
<path fill="#006469" d="M35.25,35.25h211.5c3.116,0,6.105,1.238,8.309,3.441S258.5,43.884,258.5,47v188
	c0,3.116-1.238,6.105-3.441,8.309s-5.192,3.441-8.309,3.441H35.25c-3.116,0-6.105-1.238-8.309-3.441S23.5,238.116,23.5,235V47
	c0-3.116,1.238-6.105,3.441-8.309S32.134,35.25,35.25,35.25z M235,117.5H47v105.75h188V117.5z M58.75,70.5V94h23.5V70.5H58.75z
	 M105.75,70.5V94h23.5V70.5H105.75z"/>
<path fill="#006469" d="M141.039,188.395h0.773c4.945,0,9.434,0.516,13.465,1.547c4.031,1.055,7.57,2.438,10.617,4.148
	c3.07,1.734,5.613,3.621,7.629,5.66s3.469,4.066,4.359,6.082l-5.344,1.934c-0.984-1.336-2.344-2.648-4.078-3.938
	c-1.711-1.289-3.82-2.461-6.328-3.516c-2.484-1.031-5.414-1.863-8.789-2.496c-3.352-0.633-7.172-0.949-11.461-0.949h-0.914
	c-4.289,0-8.121,0.316-11.496,0.949c-3.352,0.633-6.282,1.465-8.789,2.496c-2.532,1.055-4.664,2.227-6.399,3.516
	c-1.734,1.289-3.105,2.602-4.113,3.938l-5.203-1.934c0.89-2.016,2.343-4.043,4.359-6.082c1.992-2.039,4.524-3.926,7.594-5.66
	c3.047-1.711,6.586-3.094,10.617-4.148C131.594,188.91,136.094,188.395,141.039,188.395z"/>
<circle fill="#006469" cx="83" cy="155" r="16"/>
<circle fill="#006469" cx="199" cy="155" r="16"/>
</svg>
