<?xml version="1.0" encoding="utf-8"?>
<!-- Generator: Adobe Illustrator 15.0.0, SVG Export Plug-In . SVG Version: 6.00 Build 0)  -->
<!DOCTYPE svg PUBLIC "-//W3C//DTD SVG 1.1//EN" "http://www.w3.org/Graphics/SVG/1.1/DTD/svg11.dtd">
<svg version="1.1" id="Layer_1" xmlns="http://www.w3.org/2000/svg" xmlns:xlink="http://www.w3.org/1999/xlink" x="0px" y="0px"
	 width="101px" height="22px" viewBox="0 0 101 22" enable-background="new 0 0 101 22" xml:space="preserve">
<text transform="matrix(0.9166 0 0 1 -0.166 21.6582)" fill="#006064" font-family="'Regular'" font-size="30.4597">Fixture</text>
</svg>
