<?xml version="1.0" encoding="utf-8"?>
<!-- Generator: Adobe Illustrator 16.0.0, SVG Export Plug-In . SVG Version: 6.00 Build 0)  -->
<!DOCTYPE svg PUBLIC "-//W3C//DTD SVG 1.1//EN" "http://www.w3.org/Graphics/SVG/1.1/DTD/svg11.dtd">
<svg version="1.1" id="Layer_1" xmlns="http://www.w3.org/2000/svg" xmlns:xlink="http://www.w3.org/1999/xlink" x="0px" y="0px"
	 width="1465px" height="886px" viewBox="0 0 1465 886" enable-background="new 0 0 1465 886" xml:space="preserve">
<path fill="#F2F2F2" d="M396,410c-0.101,68.219,24.03,134.257,68.09,186.34c1.6,1.9,3.23,3.771,4.89,5.63
	c19.535,21.97,42.291,40.849,67.49,55.99c5.78,3.47,11.687,6.74,17.72,9.811c0.61,0.31,1.23,0.619,1.84,0.92
	c0.73,0.369,1.47,0.729,2.21,1.09c15.268,7.473,31.17,13.57,47.52,18.22c1.7,0.479,3.403,0.946,5.11,1.4
	c21.507,5.69,43.601,8.875,65.84,9.489c1.16,0.03,2.3,0.051,3.4,0.07c0.39,0.01,0.77,0.021,1.15,0.021
	c1.25,0.01,2.49,0.02,3.74,0.02c23.436,0.018,46.787-2.813,69.54-8.43c2.28-0.561,4.55-1.15,6.81-1.771
	c11.904-3.25,23.586-7.269,34.971-12.029c6-2.5,11.893-5.197,17.68-8.091c1.31-0.659,2.62-1.319,3.91-2
	c0.55-0.27,1.09-0.56,1.63-0.84c30.842-16.278,58.5-37.978,81.649-64.06c1.601-1.79,3.17-3.61,4.721-5.44
	c42.479-50.31,164.16-125.088,164.16-196.088c0-95.48-142.37-170.392-213.75-223.012c-1.641-1.21-3.29-2.41-4.961-3.58
	c-0.329-0.23-0.659-0.46-0.989-0.69c-29.344-20.554-62.278-35.427-97.101-43.85c-1.979-0.49-3.96-0.95-5.96-1.38
	c-37.717-8.25-76.696-8.934-114.68-2.01c-1.99,0.37-3.98,0.75-5.96,1.16c-34.511,7.078-67.425,20.444-97.1,39.43
	c-0.66,0.42-1.32,0.84-1.98,1.28c-1.33,0.86-2.66,1.74-3.97,2.63C443.79,223.899,395.936,313.806,396,410z"/>
<path fill="#E6E6E6" d="M758.17,557.21c-0.094,1.275,0.854,2.391,2.127,2.504l90.073,7.996l0.99,0.09V173.66
	c-0.33-0.23-0.66-0.46-0.99-0.69c-19.251-13.465-40.075-24.527-62.01-32.94l-4.721,65.1l-0.43,5.96l-4.67,64.56l-1.44,19.86
	L758.17,557.21L758.17,557.21z"/>
<path fill="#E6E6E6" d="M529.57,166.32c-0.66,0.42-1.32,0.84-1.98,1.28v400.2l1.98-0.18l91.37-8.11l-0.17-2.3l-18.93-261.7
	l-1.44-19.86l-4.67-64.56l-0.43-5.96l-4.95-68.27C569.003,144.259,548.603,154.147,529.57,166.32z"/>
<path fill="#E6E6E6" d="M527.59,167.6c-1.33,0.86-2.66,1.74-3.97,2.63v403.03c0,10.07,5.97,18.511,13.95,20.66
	c1.304,0.354,2.649,0.531,4,0.53h296.8c1.348,0.002,2.689-0.177,3.99-0.53c2.966-0.823,5.654-2.433,7.779-4.66
	c4.054-4.332,6.269-10.067,6.181-16V177.24c-1.641-1.21-3.29-2.41-4.96-3.58c-0.33-0.23-0.66-0.46-0.99-0.69v400.29
	c0.002,1.298-0.152,2.59-0.46,3.851c-1.41,5.949-6.061,10.31-11.54,10.31h-296.8c-6.62,0-12-6.35-12-14.16V166.32
	C528.91,166.74,528.25,167.16,527.59,167.6z"/>
<rect x="526.593" y="205.134" fill="#E6E6E6" width="326.752" height="5.959"/>
<path fill="#E6E6E6" d="M753.27,129.12c-1.979-0.49-3.96-0.95-5.96-1.38v161.81h5.96V129.12z"/>
<path fill="#E6E6E6" d="M632.63,125.73c-1.99,0.37-3.98,0.75-5.96,1.16v162.66h5.96V125.73z"/>
<path fill="#E6E6E6" d="M462.53,584.02c-0.001,3.42,0.654,6.808,1.93,9.98c0.49,1.23,1.075,2.421,1.75,3.56
	c0.872,1.486,1.883,2.887,3.02,4.181c5.083,5.791,12.415,9.111,20.12,9.109h391.31c14.813,0,26.82-12.008,26.82-26.819
	c0-14.813-12.008-26.82-26.82-26.82H489.35C474.548,557.225,462.55,569.218,462.53,584.02z"/>
<rect x="526.593" y="275.649" fill="#E6E6E6" width="324.766" height="19.863"/>
<path fill="#E6E6E6" d="M702.88,280.615h-27.809l0,0l0,0c0-6.034,4.891-10.925,10.925-10.925l0,0h5.959
	C697.988,269.69,702.88,274.581,702.88,280.615L702.88,280.615L702.88,280.615L702.88,280.615z"/>
<path fill="#CCCCCC" d="M973.552,481.752h-82.961c-2.22-0.002-4.018-1.801-4.02-4.02v-95.961c0-2.008,26.85-18.61,38.394-25.655
	c4.354-2.705,9.865-2.704,14.217,0.003c11.539,7.042,38.389,23.645,38.389,25.652v95.961
	C977.568,479.951,975.771,481.75,973.552,481.752z"/>
<path fill="#FFFFFF" d="M982.501,365.512l-15.26-31.11c-0.479-0.973-1.407-1.647-2.48-1.8c0,0,0-0.01-0.01,0
	c-0.362-0.05-0.731-0.04-1.09,0.03c-0.284,0.061-0.56,0.154-0.82,0.28l-50.25,24.64l-0.07,0.04c-1.046,0.539-1.725,1.595-1.78,2.77
	c-0.027,0.55,0.086,1.097,0.33,1.59l8.29,16.9l2.891,5.9l2.46,5h15.81l10.2-5l30.26-14.84
	C982.615,369.117,983.296,367.146,982.501,365.512z"/>
<path fill="#006469" d="M982.501,365.512l-15.26-31.11c-0.479-0.973-1.407-1.647-2.48-1.8c0,0,0-0.01-0.01,0
	c-0.362-0.05-0.731-0.04-1.09,0.03c-0.284,0.061-0.56,0.154-0.82,0.28l-50.25,24.64l-0.07,0.04c-1.046,0.539-1.725,1.595-1.78,2.77
	c-0.027,0.55,0.086,1.097,0.33,1.59l8.29,16.9l2.891,5.9l2.46,5h15.81l10.2-5l30.26-14.84
	C982.615,369.117,983.296,367.146,982.501,365.512z M977.921,368.032c-5.36,2.729-19.65,9.91-33.54,16.72
	c-0.18,0.09-0.37,0.18-0.55,0.27c-1.431,0.71-2.101,1.03-2.351,1.15c0.23-0.13,0.73-0.39,0.811-0.44c-0.03-0.01-0.47,0.19-1.83,0.83
	c-4.755,2.243-10.377,1.538-14.43-1.81c-1.445-1.197-2.621-2.687-3.45-4.37l-1.29-2.64l-7.351-14.98l-0.88-1.79
	c-0.26-0.534-0.038-1.178,0.496-1.438c0.002,0,0.003-0.001,0.004-0.002l0.15-0.07l50.1-24.58c0.532-0.261,1.175-0.041,1.436,0.491
	c0.002,0.003,0.003,0.006,0.005,0.009l1.25,2.56l12.78,26.03C980.001,365.47,979.398,367.27,977.921,368.032L977.921,368.032z"/>
<path fill="#006469" d="M928.955,374.158l38.285-18.778c0.692-0.34,1.099-1.077,1.015-1.843l-2.178-19.396
	c-0.113-0.997-1.013-1.713-2.01-1.599c-0.003,0-0.006,0-0.009,0.001c-0.207,0.024-0.408,0.083-0.596,0.174l-51.392,25.094
	l-0.002,0.001c-0.904,0.436-1.283,1.522-0.847,2.426c0.108,0.226,0.264,0.427,0.453,0.59l0.071-0.082l-0.071,0.082l15.284,13.081
	C927.516,374.383,928.3,374.481,928.955,374.158z"/>
<ellipse transform="matrix(-0.4404 -0.8978 0.8978 -0.4404 1037.0013 1376.4976)" fill="#3F3D56" cx="947.48" cy="365.072" rx="4.531" ry="4.557"/>
<path fill="#FFB6B6" d="M921.742,377.412c-4.316,3.562-10.702,2.95-14.264-1.366c-0.38-0.46-0.719-0.953-1.012-1.473l-44.852,16.089
	l-48.065-11.556l8.7-20.245l36.311,11.714l52.343-10.249c5.073-2.433,11.157-0.293,13.591,4.78
	C926.53,369.352,925.393,374.439,921.742,377.412L921.742,377.412z"/>
<path fill="#006469" d="M782.272,369.632c8.738,2.463,56.253,19.447,68.858,19.534c0.805,3.544,3.907,6.093,7.54,6.195l3.106-26.015
	c-3.893-4.482-7.09-2.139-8.599-0.362l-15.135-8.558l-55.743-26.186c-4.921-2.311-10.706-1.781-15.124,1.386l0,0
	c-6.738,4.845-8.272,14.234-3.428,20.973c0.706,0.981,1.527,1.874,2.446,2.659C771.619,363.916,777.652,368.33,782.272,369.632z"/>
<path fill="#E6E6E6" d="M642.938,539.496c0.797,5.872,4.789,11.172,9.924,14.633c1.223,0.827,2.514,1.549,3.859,2.158
	c1.479,0.668,3.004,1.228,4.563,1.674c6.841,2,14.234,2.086,21.428,2.126c7.273,0.047,14.544,0.093,21.813,0.14
	c5.732,0.033,11.65,0.033,16.944-2.165c0.079-0.029,0.156-0.063,0.232-0.1c5.201-2.245,9.631-7.181,9.505-12.826
	c-0.051-1.989-0.613-3.932-1.634-5.64c-0.676-1.147-1.487-2.209-2.418-3.162c-2.883-2.988-6.881-5.333-10.628-7.22
	c-6.177-3.103-13.158-7.127-14.965-13.503c-0.19-0.672-0.319-1.358-0.385-2.053c-0.425-4.385,1.707-8.416,4.424-12.023
	c0.266-0.357,0.545-0.717,0.83-1.075c0.611-0.765,1.242-1.515,1.866-2.231c0.266-0.307,0.531-0.618,0.804-0.93
	c2.511-2.91,5.042-6.019,6.363-9.492c0.569-1.455,0.886-2.996,0.937-4.557c0.146-5.639-6.157-11.318-10.926-8.654
	c-2.339-0.227-4.677-0.459-7.015-0.698c-2.869-0.286-5.726-0.571-8.588-0.863h-0.006c-0.645-0.054-1.275-0.12-1.906-0.187
	c-5.958-0.591-11.912-1.187-17.861-1.786c-2.644-0.259-5.752-0.358-7.472,1.674c-1.874,2.218-0.903,5.726,0.95,7.964
	c1.853,2.232,4.424,3.813,6.164,6.124c2.14,3.042,2.913,6.839,2.132,10.475c-0.187,1.076-0.466,2.134-0.837,3.162
	c-0.65,1.835-1.551,3.571-2.677,5.161c-3.905,5.473-9.691,9.246-14.825,13.583c-5.141,4.345-9.95,9.856-10.654,16.539
	c-0.02,0.192-0.04,0.392-0.046,0.591C642.758,537.389,642.793,538.449,642.938,539.496z"/>
<path fill="#E6E6E6" d="M684.71,478.676c5.183-5.119,9.597-10.963,13.107-17.348c3.498-6.352,6.083-13.166,7.676-20.241
	c1.615-7.18,2.15-14.56,1.587-21.898c-1.167-14.944-6.689-29.218-15.883-41.057c-0.562-0.72-1.137-1.429-1.725-2.127
	c-0.656-0.781-1.771,0.343-1.119,1.119c9.382,11.25,15.26,25.003,16.906,39.559c2.412,22.531-5.563,44.935-21.668,60.875
	C682.865,478.273,683.984,479.393,684.71,478.676L684.71,478.676z"/>
<path fill="#E6E6E6" d="M691.835,379.476c-0.641-0.24-1.268-0.513-1.879-0.82c-0.031,0.048-0.061,0.096-0.092,0.144L691.835,379.476
	z"/>
<path fill="#E6E6E6" d="M696.193,364.772c-0.348-3.734-2.165-7.389-5.627-9.128c-3.797-2.117-8.583-0.979-11.022,2.619
	c-0.333,0.591-0.237,1.331,0.234,1.818c0.511,0.631,1.027,1.258,1.54,1.888c0.33,0.406,0.922,0.889,0.835,1.481
	c-0.126,0.856-1.114,0.787-1.89,0.667c-0.155-0.054-0.319-0.08-0.483-0.077c-0.055-0.009-0.116-0.019-0.163-0.024
	c-0.826,0.005-1.495,0.674-1.5,1.5c0,0.132,0.018,0.264,0.053,0.391l0.001,0.007c0.842,4.051,2.945,7.731,6.006,10.515
	c1.409,1.334,2.996,2.467,4.715,3.366c0.724,0.55,1.756,0.408,2.306-0.315c0.017-0.022,0.034-0.045,0.049-0.068
	c0.632-0.892,1.206-1.823,1.717-2.789C695.015,373.042,696.583,368.967,696.193,364.772z"/>
<path fill="#E6E6E6" d="M721.071,372.745c-1.297-0.2-2.594-0.401-3.891-0.604c1.259-1.247,2.671-2.328,4.202-3.217
	c0.465-0.264,0.75-0.76,0.743-1.295c-0.314-2.867-1.566-5.432-4.263-6.756c-2.465-1.243-5.401-1.102-7.736,0.372
	c-1.359,1.075-2.549,2.35-3.527,3.78c-1.291,1.586-2.591,3.169-3.787,4.83c-2.402,3.144-3.977,6.841-4.578,10.752
	c-0.552,4.327,0.259,8.719,2.318,12.563c0.17,2.208,0.339,4.417,0.507,6.626c0.021,0.84,0.718,1.505,1.558,1.484
	c0.245-0.006,0.484-0.071,0.699-0.189c10.482-5.141,17.6-15.294,18.856-26.901C722.175,373.516,721.724,372.922,721.071,372.745z"/>
<path fill="#E6E6E6" d="M703.868,441.411c0.518,0.026,1.036,0.04,1.547,0.033c8.935-0.057,17.449-3.793,23.54-10.329
	c2.439-2.672,4.401-5.743,5.799-9.08c-0.046-0.007-0.086-0.013-0.133-0.02c-2.152-0.332-4.311-0.671-6.463-1.003
	c2.286-2.979,5.323-5.294,8.801-6.708c0.471-3.001,0.507-6.055,0.106-9.067c-4.862,7.924-16.227,8.562-23.407,14.46
	c-3.424,2.854-5.759,6.803-6.608,11.179c-0.212,1.081-0.326,2.179-0.339,3.281c-0.007,0.266-0.007,0.524,0,0.784l-0.16,0.359
	L703.868,441.411z"/>
<path fill="#E6E6E6" d="M698.127,440.175c-1.615-3.844-2.865-8.455-7.325-9.766c-3.969-1.146-8.152,0.955-9.603,4.824
	c-0.142,0.521,0.005,1.077,0.386,1.459c0.498,0.612,0.996,1.224,1.493,1.836c-0.616,0.028-1.233,0.035-1.854,0.013
	c-0.673,0.005-1.263,0.454-1.447,1.102c-0.546,2.247-0.863,4.542-0.947,6.853c-0.153,0.847-0.001,1.72,0.429,2.465
	c0.676,0.936,1.406,1.832,2.186,2.684c0.767,0.941,1.534,1.885,2.299,2.828c-0.745,0.033-1.492,0.029-2.242-0.01
	c-0.835,0.01-1.505,0.693-1.497,1.528c0.001,0.126,0.018,0.25,0.05,0.371c1.807,6.317,5.373,11.99,10.283,16.357
	c0.607,0.58,1.57,0.558,2.15-0.05c0.166-0.174,0.288-0.383,0.356-0.612c0.083-0.234,0.193-0.475,0.252-0.716
	c0.01-0.037,0.022-0.074,0.036-0.109c-0.04,0.064-0.097,0.152-0.168,0.257c0.096-0.144,0.177-0.296,0.245-0.454
	c0.137-0.313,0.235-0.65,0.351-0.971c0.476-1.314,0.95-2.631,1.426-3.945c0.053-0.148,0.102-0.301,0.161-0.446
	c0.046-0.003,0.091-0.015,0.132-0.037c0.42-0.192,0.885-1.006,1.178-1.382c0.411-0.523,0.804-1.062,1.163-1.622
	c1.335-2.102,2.282-4.425,2.797-6.86C701.586,450.334,700.239,445.203,698.127,440.175z"/>
<path fill="#E6E6E6" d="M693.135,471.232C693.328,470.922,693.215,471.027,693.135,471.232z"/>
<path fill="#F0F0F0" d="M419.873,750.292l7.71-12.391l1.54,7.08c0.27,1.24,0.54,2.5,0.79,3.75c2.19-1.869,4.52-3.6,6.8-5.26
	c7-5.08,13.997-10.166,20.99-15.26l-2.19,12.7c-1.35,7.82-2.76,15.8-6.1,22.95c-0.37,0.81-0.77,1.609-1.2,2.39h-32.54
	c-0.262-0.725-0.443-1.476-0.54-2.24c-0.008-0.05-0.011-0.1-0.01-0.149C414.612,759.012,417.292,754.442,419.873,750.292z"/>
<path fill="#F0F0F0" d="M914.27,748.292l-7.71-12.391l-1.54,7.08c-0.271,1.24-0.54,2.5-0.79,3.75c-2.19-1.869-4.521-3.6-6.8-5.26
	c-7-5.08-13.997-10.166-20.99-15.26l2.189,12.7c1.351,7.82,2.761,15.8,6.101,22.95c0.37,0.81,0.77,1.609,1.2,2.39h32.54
	c0.262-0.725,0.442-1.476,0.54-2.24c0.008-0.05,0.011-0.1,0.01-0.149C919.529,757.012,916.85,752.442,914.27,748.292z"/>
<path fill="#F0F0F0" d="M959.27,748.292l-7.71-12.391l-1.54,7.08c-0.271,1.24-0.54,2.5-0.79,3.75c-2.19-1.869-4.521-3.6-6.8-5.26
	c-7-5.08-13.997-10.166-20.99-15.26l2.189,12.7c1.351,7.82,2.761,15.8,6.101,22.95c0.37,0.81,0.77,1.609,1.2,2.39h32.54
	c0.262-0.725,0.442-1.476,0.54-2.24c0.008-0.05,0.011-0.1,0.01-0.149C964.529,757.012,961.85,752.442,959.27,748.292z"/>
<path fill="#FFFFFF" d="M960.07,384.752h-56c-1.38,0-2.5,1.119-2.5,2.5s1.12,2.5,2.5,2.5h56c1.381,0,2.5-1.119,2.5-2.5
	S961.451,384.752,960.07,384.752z"/>
<circle fill="#FFFFFF" cx="894.071" cy="436.252" r="4"/>
<polygon fill="#3F3D56" points="811.131,316.663 776.939,313.703 765.128,330.108 751.128,475.107 818.766,480.439 849.073,488.825 
	"/>
<polygon fill="#FFB6B6" points="747.254,752.983 760.223,752.982 766.393,702.957 747.252,702.958 "/>
<path fill="#2F2E41" d="M743.945,748.749l3.65-0.001l14.253-5.796l7.639,5.795h0.001c8.989,0.001,16.276,7.288,16.277,16.277v0.529
	l-41.819,0.001L743.945,748.749z"/>
<polygon fill="#FFB6B6" points="797.513,744.81 810.164,747.666 827.202,700.229 808.53,696.014 "/>
<path fill="#2F2E41" d="M795.219,739.951l3.561,0.804l15.18-2.514l6.174,7.335h0.001c8.769,1.98,14.271,10.694,12.292,19.463
	l-0.116,0.516l-40.792-9.21L795.219,739.951z"/>
<path fill="#2F2E41" d="M730.828,447.156c-6.081,18.339-5.438,38.246,1.461,59.611l2.949,120.293
	c-4.875,5.366-5.621,53.381,1.89,69.048c10.03,20.921,0.807,23.718,7.896,37.598h20.564l9.504-62.881l0.678-50.969
	c2.731-6.467,0.489-29.225,0.489-29.225l0.789-47.191l37.079,82.668c-16.799,14.379-15.286,60.825-15.563,81.427l-5.509,24.31
	l25.311,2.263l11.169-32.967l12.558-20.315c6.399-35.996,8.297-62.422,2.841-73.216l-37.222-138.486L730.828,447.156z"/>
<path fill="#006469" d="M726.703,448.135c0.07,1.473,0.374,2.924,0.9,4.301c0.06,0.17,0.119,0.33,0.189,0.5
	c1.234,2.949,3.425,5.397,6.22,6.949c0.823,0.464,1.69,0.843,2.591,1.131l7.789,1.25l66.99,10.709l2.69-8.09l-5.07-12.68l3.36-10.9
	l0.76-105.62v-0.08l-12.17-19.41l-0.1-12.27l-33.98-0.83l-3.689,9.36l-7.29,4.36c-16.16,9.66-21.98,27.35-21.631,46.18
	c5.57,21.57,1.471,45.55-2.68,71.26l-3.39,6.78C727.095,443.234,726.581,445.68,726.703,448.135z"/>
<path opacity="0.2" enable-background="new    " d="M726.703,448.135c0.07,1.473,0.374,2.924,0.9,4.301l6.409,7.449
	c0.823,0.464,1.69,0.843,2.591,1.131l7.789,1.25l-11.27-21.19l24.77-54.23L726.703,448.135z"/>
<path fill="#3F3D56" d="M797.375,315.416l-34.191-2.96l0,0c-19.87,9.083-33.473,27.976-35.784,49.701l-11.271,105.953l72.638,12.332
	l30.308,8.384L797.375,315.416z"/>
<path fill="#FFB8B8" d="M755.826,268.745c2.38,17.315,18.346,29.422,35.661,27.042c17.282-2.375,29.383-18.289,27.054-35.578
	l-0.062-0.449c-2.76-17.259-18.988-29.012-36.247-26.252c-16.865,2.697-28.548,18.292-26.396,35.236L755.826,268.745z"/>
<path fill="#2F2E41" d="M763.88,285.046c-1.625-3.302-3.294-6.846-2.838-10.497c0.457-3.651,4.038-7.141,7.554-6.056
	c2.103,0.649,3.691,2.725,5.89,2.831c3.023,0.146,4.758-3.314,5.698-6.192l3.834-11.719c7.453,5.809,17.108,7.99,26.335,5.951
	c3.56-0.814,7.155-2.4,9.243-5.396c2.087-2.996,2.075-7.642-0.789-9.906c-1.404-1.111-3.272-1.533-4.614-2.718
	c-2.141-1.891-2.344-5.158-0.453-7.299c1.146-1.298,2.866-1.937,4.582-1.7l-9.652-1.207l2.876-5.201
	c-2.072,1.633-4.956,1.853-7.553,1.386c-2.598-0.468-5.043-1.537-7.583-2.25c-12.196-3.423-26.37,2.529-32.466,13.633
	c-4.863-1.624-10.224-0.076-13.472,3.89c-2.584,3.28-3.287,7.656-3.387,11.83c-0.188,8.229,1.606,16.384,5.231,23.775
	c1.04,2.347,2.533,4.466,4.396,6.234c1.897,1.775,4.481,2.62,7.061,2.309"/>
<path fill="#CCCCCC" d="M790.065,478.049l-64.886-12.076l20.858-112.075c3.339-17.917,20.569-29.735,38.486-26.397
	c17.912,3.337,29.729,20.56,26.399,38.473L790.065,478.049z M729.844,462.773l57.021,10.611l20.126-108.143
	c2.94-15.744-7.439-30.891-23.183-33.831c-15.744-2.94-30.891,7.439-33.831,23.183c-0.002,0.012-0.005,0.023-0.007,0.035
	L729.844,462.773z"/>
<path fill="#CCCCCC" d="M782.525,528.951l-72.884-15.826c-4.161-0.904-6.801-5.01-5.897-9.17l10.657-49.081
	c0.903-4.161,5.009-6.801,9.169-5.897l72.884,15.826c4.161,0.903,6.801,5.008,5.897,9.169l-10.657,49.081
	C790.791,527.214,786.686,529.854,782.525,528.951z"/>
<path fill="#FFFFFF" d="M751.86,466.242v15.119l0.771,0.171l0.939,0.21l25.94,5.75h0.021l7.939,1.76h0.34
	c0.557,0.002,1.088-0.227,1.471-0.63c0.342-0.37,0.531-0.856,0.529-1.36v-21.02c0.005-0.625-0.293-1.214-0.8-1.58
	c-0.038-0.042-0.082-0.079-0.13-0.109c-0.149-0.087-0.307-0.157-0.47-0.211c-0.016-0.008-0.033-0.012-0.05-0.01
	c-0.009-0.008-0.02-0.012-0.03-0.01c-0.17-0.045-0.345-0.068-0.521-0.07h-33.99c-0.411-0.001-0.812,0.133-1.14,0.38
	C752.164,465.006,751.859,465.604,751.86,466.242z"/>
<path fill="#006469" d="M751.86,466.242v15.119l0.771,0.171l0.939,0.21c-0.093-0.291-0.166-0.589-0.22-0.891
	c-0.018-0.063-0.031-0.125-0.04-0.189c-0.072-0.434-0.108-0.871-0.109-1.311v-13.109c0.004-0.361,0.299-0.652,0.66-0.65h33.949
	c0.361-0.002,0.656,0.289,0.66,0.65v19.32c-0.01,1.01-0.82,1.829-1.83,1.85c-0.689,0.01-1.6,0.02-2.68,0.029
	c-1.26,0.021-2.76,0.041-4.43,0.051l7.939,1.76h0.34c0.557,0.002,1.088-0.227,1.471-0.63c0.342-0.37,0.531-0.856,0.529-1.36v-21.02
	c0.005-0.625-0.293-1.214-0.8-1.58c-0.038-0.042-0.082-0.079-0.13-0.109c-0.149-0.087-0.307-0.157-0.47-0.211
	c-0.016-0.008-0.033-0.012-0.05-0.01c-0.009-0.008-0.02-0.012-0.03-0.01c-0.17-0.045-0.345-0.068-0.521-0.07h-33.99
	c-0.411-0.001-0.812,0.133-1.14,0.38C752.164,465.006,751.859,465.604,751.86,466.242z M751.86,479.912v0.42l1.45,0.33
	c-0.072-0.434-0.108-0.871-0.109-1.311v-0.72C752.761,479.072,752.311,479.492,751.86,479.912L751.86,479.912z"/>
<path fill="#006469" d="M758.338,477.668h25.869c0.468,0,0.886-0.293,1.045-0.732l3.995-11.146c0.204-0.573-0.095-1.203-0.668-1.408
	c-0.001,0-0.003-0.001-0.005-0.002c-0.119-0.041-0.244-0.063-0.371-0.063l-34.693-0.062h-0.002
	c-0.608-0.004-1.105,0.486-1.109,1.096c-0.001,0.152,0.029,0.303,0.09,0.442l0.061-0.025l-0.061,0.025l4.83,11.208
	C757.494,477.406,757.895,477.669,758.338,477.668z"/>
<ellipse fill="#3F3D56" cx="770.855" cy="477.668" rx="2.764" ry="2.749"/>
<path fill="#FFFFFF" d="M724.341,475.271l0.64,0.141l1.24,0.27l12.75,2.83l11.66,2.58l1.229,0.27l0.771,0.17l0.72-0.68l0.16-0.149
	l3.84-3.64l9.41-8.91c0.709-0.67,0.828-1.754,0.28-2.561c-0.055-0.096-0.122-0.183-0.2-0.26l-1-1.061l-0.021-0.02l-13.43-14.18
	c-0.438-0.466-1.076-0.689-1.71-0.601c-0.033-0.001-0.067,0.003-0.1,0.011c-0.215,0.041-0.421,0.119-0.61,0.229
	c-0.146,0.079-0.28,0.176-0.4,0.29l-24.659,23.35l-0.021,0.021c-0.248,0.237-0.428,0.538-0.52,0.87c-0.03,0.08-0.04,0.15-0.061,0.21
	C724.271,474.725,724.281,475.003,724.341,475.271z"/>
<path fill="#006469" d="M724.341,475.271l0.64,0.141l1.24,0.27l-0.42-0.439c-0.176-0.189-0.223-0.464-0.12-0.7
	c0.033-0.083,0.085-0.159,0.15-0.22l24.66-23.351c0.254-0.245,0.659-0.239,0.905,0.015c0.005,0.006,0.01,0.011,0.015,0.016l1.2,1.26
	l11.35,11.99l0.02,0.02l0.721,0.76c0.153,0.163,0.275,0.354,0.359,0.561c0.284,0.699,0.118,1.501-0.42,2.03
	c-1.51,1.47-4.47,4.34-8.03,7.739c-1.09,1.061-2.227,2.15-3.409,3.271c-0.44,0.44-0.891,0.86-1.341,1.28
	c-0.119,0.119-0.239,0.24-0.359,0.34c-0.29,0.29-0.58,0.561-0.87,0.84l1.229,0.27l0.771,0.17l0.72-0.68l0.16-0.149l3.84-3.64
	l9.41-8.91c0.709-0.67,0.828-1.754,0.28-2.561c-0.055-0.096-0.122-0.183-0.2-0.26l-1-1.061l-0.021-0.02l-13.43-14.18
	c-0.438-0.466-1.076-0.689-1.71-0.601c-0.033-0.001-0.067,0.003-0.1,0.011c-0.215,0.041-0.421,0.119-0.61,0.229
	c-0.146,0.078-0.28,0.176-0.4,0.29l-24.659,23.35l-0.021,0.021c-0.248,0.237-0.428,0.538-0.52,0.87c-0.03,0.08-0.04,0.15-0.061,0.21
	C724.271,474.725,724.281,475.003,724.341,475.271z"/>
<path fill="#006469" d="M724.311,474.402v0.05c0.012,0.262,0.118,0.511,0.3,0.7c0.105,0.109,0.231,0.197,0.37,0.26l1.24,0.27
	l12.75,2.83l0.89-0.84l4.61-4.37l4.021-3.8l3.369-3.2l0.61-0.569l1.561-1.48l2.14-2.03c0.343-0.319,0.447-0.82,0.26-1.25l-3.82-8.71
	l-0.939-2.13c-0.173-0.396-0.56-0.653-0.99-0.66c-0.033-0.001-0.067,0.003-0.1,0.011c-0.129,0.001-0.256,0.031-0.37,0.09
	c-0.087,0.034-0.168,0.082-0.24,0.14c-0.03,0.021-0.05,0.05-0.08,0.069l-24.979,23.57l-0.021,0.021l-0.229,0.22
	c-0.164,0.182-0.278,0.402-0.33,0.641C724.313,474.287,724.307,474.345,724.311,474.402z"/>
<ellipse transform="matrix(-0.6877 -0.726 0.726 -0.6877 917.5508 1337.5381)" fill="#3F3D56" cx="746.48" cy="471.404" rx="2.749" ry="2.764"/>
<path fill="#CCCCCC" d="M721.551,474.652l2.79,0.619l0.64,0.141l1.24,0.27l12.75,2.83l11.66,2.58l1.229,0.27l0.771,0.17l0.939,0.211
	l25.94,5.75h0.02l7.94,1.76l3.75,0.83l8.86-18.03l-0.9-0.44l-8.51,17.32l-1.391-0.31l-5.319-1.181l-30.45-6.739l-0.2-0.04
	l-1.45-0.33l-0.359-0.08l-11.641-2.58l-14.18-3.13l-1.31-0.3l-0.04-0.01l-1.74-0.381l0.979-19.58l-1-0.039L721.551,474.652z"/>
<path fill="#CCCCCC" d="M1070.762,766.747c0.002,0.655-0.527,1.188-1.183,1.19c-0.003,0-0.005,0-0.007,0H397.282
	c-0.657,0-1.19-0.533-1.19-1.19s0.533-1.189,1.19-1.189h672.291c0.655-0.002,1.188,0.527,1.189,1.183
	C1070.762,766.743,1070.762,766.745,1070.762,766.747z"/>
<path fill="#FFB6B6" d="M794.338,500.606c-4.756-2.949-6.22-9.195-3.271-13.951c0.314-0.507,0.673-0.985,1.071-1.429l-29.598-37.344
	l-4.435-49.236l21.965,1.764l0.522,38.15l26.462,46.309c3.929,4.028,3.849,10.479-0.179,14.406
	C803.507,502.563,798.323,503.113,794.338,500.606z"/>
<path fill="#006469" d="M757.073,365.982c0.464,9.067-0.421,59.519,3.531,71.489c-3.101,1.896-4.522,5.651-3.456,9.126l25.641-5.383
	c3.001-5.122-0.242-7.401-2.408-8.262l3.264-17.078l6.969-61.192c0.614-5.401-1.739-10.712-6.153-13.885l0,0
	c-6.746-4.833-16.133-3.282-20.966,3.464c-0.704,0.982-1.287,2.047-1.736,3.169C759.08,354.059,756.829,361.188,757.073,365.982z"/>
</svg>
