<?xml version="1.0" encoding="utf-8"?>
<!-- Generator: Adobe Illustrator 16.0.0, SVG Export Plug-In . SVG Version: 6.00 Build 0)  -->
<!DOCTYPE svg PUBLIC "-//W3C//DTD SVG 1.1//EN" "http://www.w3.org/Graphics/SVG/1.1/DTD/svg11.dtd">
<svg version="1.1" id="Layer_1" xmlns="http://www.w3.org/2000/svg" xmlns:xlink="http://www.w3.org/1999/xlink" x="0px" y="0px"
	 width="56px" height="56px" viewBox="0 0 56 56" enable-background="new 0 0 56 56" xml:space="preserve">
<path fill="#006469" d="M12,0h32c6.627,0,12,5.373,12,12v32c0,6.627-5.373,12-12,12H12C5.373,56,0,50.627,0,44V12
	C0,5.373,5.373,0,12,0z"/>
<text transform="matrix(0.5748 0 0 1 12.5 43.1885)" fill="#FCFCFC" font-family="'Roboto-Bold'" font-size="41.7547">FIX</text>
</svg>
